…
Running `paleocar` on a matrix of locations (`predictands`) will generate reconstructions that select from the same set of predictors (`chronologies`). The matrix must be formatted such that each location is in a column, and each row is a year of data. Note that the number of rows of the matrix must be the same as the number of years provided to `calibration.years`.

``` r
# Extract a matrix of annualized climate data (all cells in the raster)
mvnp_prism.matrix <- mvnp_prism %>%
  raster::as.matrix() %>% 
  t()

# Print to show format
mvnp_prism.matrix %>% 
  tibble::as_tibble()
```

    ## # A tibble: 60 × 624
    ##       V1    V2    V3    V4    V5    V6    V7    V8    V9   V10   V11   V12
    ##    <dbl> <dbl> <dbl> <dbl> <dbl> <dbl> <dbl> <dbl> <dbl> <dbl> <dbl> <dbl>
    ## 1    291   291   291   294   297   301   304   309   314   318   324   333
    ## 2    364   364   368   371   375   382   389   395   404   409   420   427
    ## 3    387   388   390   394   398   403   408   413   424   427   436   443
    ## 4    506   507   510   516   521   530   539   547   556   563   574   582
    ## 5    254   254   257   258   261   268   269   278   284   285   293   298
    ## 6    436   437   439   443   451   459   469   478   490   498   508   521
    ## 7    259   261   263   266   271   275   284   289   297   301   308   315
    ## 8    290   290   289   292   295   298   299   300   304   308   314   318
    ## 9    419   419   421   426   431   437   442   449   455   461   470   479
    ## 10   239   243   245   249   254   260   265   272   279   284   292   297
    ## # ... with 50 more rows, and 612 more variables: V13 <dbl>, V14 <dbl>,
    ## #   V15 <dbl>, V16 <dbl>, V17 <dbl>, V18 <dbl>, V19 <dbl>, V20 <dbl>,
    ## #   V21 <dbl>, V22 <dbl>, V23 <dbl>, V24 <dbl>, V25 <dbl>, V26 <dbl>,
    ## #   V27 <dbl>, V28 <dbl>, V29 <dbl>, V30 <dbl>, V31 <dbl>, V32 <dbl>,
    ## #   V33 <dbl>, V34 <dbl>, V35 <dbl>, V36 <dbl>, V37 <dbl>, V38 <dbl>,
    ## #   V39 <dbl>, V40 <dbl>, V41 <dbl>, V42 <dbl>, V43 <dbl>, V44 <dbl>,
    ## #   V45 <dbl>, V46 <dbl>, V47 <dbl>, V48 <dbl>, V49 <dbl>, V50 <dbl>,
    ## #   V51 <dbl>, V52 <dbl>, V53 <dbl>, V54 <dbl>, V55 <dbl>, V56 <dbl>,
    ## #   V57 <dbl>, V58 <dbl>, V59 <dbl>, V60 <dbl>, V61 <dbl>, V62 <dbl>,
…
